Database loaded Memory usage: 171.1mb Load time: 598ms
OK    1.0.0.0 US Los Angeles Memory usage: 171.1mb Lookup time: 100μs
OK    71.6.28.0 US San Jose Memory usage: 171.1mb Lookup time: 916μs
OK    71.6.28.255 US San Jose Memory usage: 171.1mb Lookup time: 1ms
OK    71.6.29.0 US Concord Memory usage: 171.1mb Lookup time: 707μs
OK    53.103.144.0 DE Stuttgart Memory usage: 171.1mb Lookup time: 591μs
OK    53.255.255.255 DE Stuttgart Memory usage: 171.1mb Lookup time: 608μs
OK    54.0.0.0 US Rahway Memory usage: 171.1mb Lookup time: 532μs
OK    223.255.255.255 AU Brisbane Memory usage: 171.1mb Lookup time: 2ms
OK    5.44.16.0 GB Hastings Memory usage: 171.1mb Lookup time: 111μs
OK    8.24.99.0 US Hastings Memory usage: 171.1mb Lookup time: 129μs
